Breast_Cancer
…
# prep and juice 
Cancer_recipe %>% prep(train_data)%>%juice()

## # A tibble: 523 x 9
##    Cl.thickness Cell.shape Marg.adhesion Epith.c.size Bare.nuclei Bl.cromatin
##           <dbl>      <dbl>         <dbl>        <dbl>       <dbl>       <dbl>
##  1        0.225      0.288         0.809       1.76         1.78       -0.166
##  2        0.583      1.67         -0.629      -0.0736       0.127      -0.166
##  3       -1.21      -0.748        -0.629      -0.532        1.78       -0.166
##  4       -1.21      -0.748        -0.629      -0.990       -0.701      -0.166
##  5       -1.21      -0.748        -0.629      -0.532       -0.149      -0.166
##  6       -0.134     -0.748        -0.629      -0.532       -0.701      -0.585
##  7       -0.134     -0.748        -0.629      -0.532       -0.701      -0.166
##  8        0.583     -0.748        -0.629      -0.532       -0.701      -0.166
##  9       -0.492     -0.748        -0.629      -0.532       -0.701      -0.585
## 10       -1.21      -0.748        -0.629      -0.532       -0.701      -0.166
## # ... with 513 more rows, and 3 more variables: Normal.nucleoli <dbl>,
## #   Mitoses <dbl>, Class <fct>

# prep and juice 
Cancer_recipe %>% prep(train_data)%>% juice()

## # A tibble: 523 x 9
##    Cl.thickness Cell.shape Marg.adhesion Epith.c.size Bare.nuclei Bl.cromatin
##           <dbl>      <dbl>         <dbl>        <dbl>       <dbl>       <dbl>
##  1        0.225      0.288         0.809       1.76         1.78       -0.166
##  2        0.583      1.67         -0.629      -0.0736       0.127      -0.166
##  3       -1.21      -0.748        -0.629      -0.532        1.78       -0.166
##  4       -1.21      -0.748        -0.629      -0.990       -0.701      -0.166
##  5       -1.21      -0.748        -0.629      -0.532       -0.149      -0.166
##  6       -0.134     -0.748        -0.629      -0.532       -0.701      -0.585
##  7       -0.134     -0.748        -0.629      -0.532       -0.701      -0.166
##  8        0.583     -0.748        -0.629      -0.532       -0.701      -0.166
##  9       -0.492     -0.748        -0.629      -0.532       -0.701      -0.585
## 10       -1.21      -0.748        -0.629      -0.532       -0.701      -0.166
## # ... with 513 more rows, and 3 more variables: Normal.nucleoli <dbl>,
## #   Mitoses <dbl>, Class <fct>
…
# tune the model
rf_grid <- expand.grid(mtry  = 1:8, 
                       trees = c(250, 500, 750,1000))
rf_tune <- rf_workflow %>%
  tune_grid(resamples = Cancer_cv,
            grid      = rf_grid,
            metrics   = metric_set(accuracy,roc_auc))

rf_tune %>% 
  collect_metrics()

## # A tibble: 64 x 8
##     mtry trees .metric  .estimator  mean     n std_err .config              
##    <int> <dbl> <chr>    <chr>      <dbl> <int>   <dbl> <chr>                
##  1     1   250 accuracy binary     0.971    50 0.00325 Preprocessor1_Model01
##  2     1   250 roc_auc  binary     0.993    50 0.00115 Preprocessor1_Model01
##  3     2   250 accuracy binary     0.969    50 0.00318 Preprocessor1_Model02
##  4     2   250 roc_auc  binary     0.992    50 0.00145 Preprocessor1_Model02
##  5     3   250 accuracy binary     0.968    50 0.00348 Preprocessor1_Model03
##  6     3   250 roc_auc  binary     0.992    50 0.00142 Preprocessor1_Model03
##  7     4   250 accuracy binary     0.966    50 0.00334 Preprocessor1_Model04
##  8     4   250 roc_auc  binary     0.991    50 0.00151 Preprocessor1_Model04
##  9     5   250 accuracy binary     0.965    50 0.00341 Preprocessor1_Model05
## 10     5   250 roc_auc  binary     0.992    50 0.00143 Preprocessor1_Model05
## # ... with 54 more rows
…
test_performance <- rf_fit %>% collect_metrics()
test_performance

## # A tibble: 2 x 4
##   .metric  .estimator .estimate .config             
##   <chr>    <chr>          <dbl> <chr>               
## 1 accuracy binary         0.977 Preprocessor1_Model1
## 2 roc_auc  binary         0.990 Preprocessor1_Model1

# generate predictions from the test set
test_predictions <- rf_fit %>% collect_predictions()
test_predictions

## # A tibble: 176 x 7
##    id         .pred_benign .pred_malignant  .row .pred_class Class  .config     
##    <chr>             <dbl>           <dbl> <int> <fct>       <fct>  <chr>       
##  1 train/tes~       0.985           0.0149     1 benign      benign Preprocesso~
##  2 train/tes~       0.986           0.0141     3 benign      benign Preprocesso~
##  3 train/tes~       0.964           0.0358     5 benign      benign Preprocesso~
##  4 train/tes~       0.988           0.0123     8 benign      benign Preprocesso~
##  5 train/tes~       0.756           0.244      9 benign      benign Preprocesso~
##  6 train/tes~       0.988           0.0119    10 benign      benign Preprocesso~
##  7 train/tes~       0.989           0.0105    12 benign      benign Preprocesso~
##  8 train/tes~       0.0218          0.978     19 malignant   malig~ Preprocesso~
##  9 train/tes~       0.156           0.844     21 malignant   malig~ Preprocesso~
## 10 train/tes~       0.322           0.678     26 malignant   malig~ Preprocesso~
## # ... with 166 more rows
…
test_predictions <- rf_fit %>% pull(.predictions)
test_predictions

## [[1]]
## # A tibble: 176 x 6
##    .pred_benign .pred_malignant  .row .pred_class Class     .config             
##           <dbl>           <dbl> <int> <fct>       <fct>     <chr>               
##  1       0.985           0.0149     1 benign      benign    Preprocessor1_Model1
##  2       0.986           0.0141     3 benign      benign    Preprocessor1_Model1
##  3       0.964           0.0358     5 benign      benign    Preprocessor1_Model1
##  4       0.988           0.0123     8 benign      benign    Preprocessor1_Model1
##  5       0.756           0.244      9 benign      benign    Preprocessor1_Model1
##  6       0.988           0.0119    10 benign      benign    Preprocessor1_Model1
##  7       0.989           0.0105    12 benign      benign    Preprocessor1_Model1
##  8       0.0218          0.978     19 malignant   malignant Preprocessor1_Model1
##  9       0.156           0.844     21 malignant   malignant Preprocessor1_Model1
## 10       0.322           0.678     26 malignant   malignant Preprocessor1_Model1
## # ... with 166 more rows
…
